{
  "content": [
    {
      "id": 11,
      "name": "user1",
      "email": "user1@example.com"
    },
    {
      "id": 12,
      "name": "user2",
      "email": "user2@example.com"
    },
    {
      "id": 13,
      "name": "user3",
      "email": "user3@example.com"
    },
    {
      "id": 14,
      "name": "user4",
      "email": "user4@example.com"
    },
    {
      "id": 15,
      "name": "user5",
      "email": "user5@example.com"
    }
  ],
  "number": 1,
  "size": 10,
  "totalPages": 2,
  "totalElements": 15,
  "first": false,
  "last": true
}