{
  "content": [
    {
      "id": 1,
      "name": "user1",
      "email": "user1@example.com"
    },
    {
      "id": 2,
      "name": "user2",
      "email": "user2@example.com"
    },
    {
      "id": 3,
      "name": "user3",
      "email": "user3@example.com"
    },
    {
      "id": 4,
      "name": "user4",
      "email": "user4@example.com"
    },
    {
      "id": 5,
      "name": "user5",
      "email": "user5@example.com"
    },
    {
      "id": 6,
      "name": "user6",
      "email": "user6@example.com"
    },
    {
      "id": 7,
      "name": "user7",
      "email": "user7@example.com"
    },
    {
      "id": 8,
      "name": "user8",
      "email": "user8@example.com"
    },
    {
      "id": 9,
      "name": "user9",
      "email": "user9@example.com"
    },
    {
      "id": 10,
      "name": "user10",
      "email": "user10@example.com"
    }
  ],
  "number": 0,
  "size": 10,
  "totalPages": 2,
  "totalElements": 15,
  "first": true,
  "last": false
}